{
  "get_started": "//android.widget.Button[contains(@text,'GET STARTED')]",
  "OK": "//android.widget.Button[contains(@text,'OK')]",
  "allow_button": "//android.widget.Button[contains(@text,'ALLOW')]",
  "log_out": "//android.widget.CheckedTextView[contains(@text,'Sign out')]",
  "sign_out": "//android.widget.Button[contains(@text, 'SIGN OUT')]",
  "overflow_menu": "//android.widget.ImageButton[contains(@content-desc, 'Navigation menu')]",
  "unread_section": "//android.widget.TextView[contains(@text, 'Unread')]",
  "recent_section": "//android.widget.TextView[contains(@text, 'Recent')]",
  "starred_section": "//android.widget.TextView[contains(@text, 'Starred')]",
  "confirm_members": "//android.widget.Button[contains(@text, 'CONFIRM')]",
  "find_room": "//android.widget.EditText[contains(@text, 'Find a room')]",
  "join_icon": "//android.widget.ImageButton[contains(@resource-id, 'com.google.android.apps.dynamite:id/join_icon')]",
  "account": "//android.widget.ImageView[contains(@content-desc,'More options')]",
  "add_account": "//android.widget.CheckedTextView[contains(@text,'Add account')]",
  "enter_pin": "//android.widget.EditText[contains(@resource-id,'com.android.settings:id/password_entry')]",
  "pin": "1234",
  "search_box": "//android.widget.EditText[contains(@resource-id,'com.google.android.apps.dynamite:id/compose_filter_text')]",
  "clear_filter": "//android.widget.ImageView[@content-desc ='Clear filter']",
  "astarred_room": "//android.widget.TextView[contains(@text,'aStarredRoom')]",
  "app_notifications": "//android.widget.TextView[contains(@text, 'App notifications')]",
  "create_room_section": "//android.widget.TextView[contains(@text, 'Create room')]",
  "create_room1": "//android.widget.TextView[contains(@text,'CreateRoom')]",
  "click_dynamite_1": "//android.widget.TextView[contains(@text,'dynaandroauto1@dynamitegroup.net')]",
  "click_account_1": "//android.widget.TextView[contains(@text,'Sudheer G')]",
  "timestamp_room": "//android.widget.TextView[contains(@resource-id, 'com.google.android.apps.dynamite:id/timestamp')]",
  "cancel_button": "//android.widget.Button[contains(@text,'CANCEL')]",
  "close_app": "//android.widget.Button[contains(@text,'CLOSE THE APP AND TRY LOGGING IN WITH A DIFFERENT ACCOUNT')]",
  "chat_header": "//android.widget.TextView[contains(@text, 'Chat')]",
  "notification_bell": "//android.widget.TextView[@content-desc ='Notification settings']",
  "fab_button": "//android.widget.ImageButton[contains(@resource-id, 'com.google.android.apps.dynamite:id/launcher_floating_action_button')]",
  "presence_indicator": "//android.widget.ImageView[contains(@resource-id, 'com.google.android.apps.dynamite:id/presence_indicator')]",
  "unread_badge": "//android.widget.TextView[contains(@resource-id, 'com.google.android.apps.dynamite:id/badge_count')]",
  "search_bar": "//android.widget.EditText[contains(@text, 'Find room or DM')]",
  "group_message": "//android.widget.TextView[contains(@text, 'Group Message')]",
  "message_bot": "//android.widget.TextView[contains(@text, 'Message a bot')]",
  "create_room": "//android.widget.TextView[contains(@text, 'Create room')]",
  "browse_rooms": "//android.widget.TextView[contains(@text, 'Browse rooms')]",
  "browse_rooms_page": "//android.widget.TextView[contains(@text,'Browse rooms')]",
  "frequent": "//android.widget.TextView[contains(@text, 'Frequent')]",
  "user_avatar": "//android.widget.ImageView[contains(@resource-id, 'com.google.android.apps.dynamite:id/user_avatar')]",
  "test_search": "//android.widget.TextView[contains(@text, 'test')]",
  "clear_search": "//android.widget.ImageView[contains(@resource-id, 'com.google.android.apps.dynamite:id/clear_text_button')]",
  "starred_room": "//android.widget.TextView[contains(@text, 'Starred')]",
  "recent_room": "//android.widget.ImageView[contains(@resource-id, 'com.google.android.apps.dynamite:id/title')]",
  "badge_count": "//android.widget.TextView[contains(@resource-id, 'com.google.android.apps.dynamite:id/badge_count')]",
  "member_count": "//android.widget.TextView[contains(@resource-id, 'com.google.android.apps.dynamite:id/invited_group_member_count')]",
  "snackbar_room": "//android.widget.TextView[contains(@text, 'Invited rooms couldn't be loaded. Try again in a few minutes.')]",
  "snackbar_room_filter": "//android.widget.TextView[contains(@text, 'text couldn't be created. Try again in a few minutes.')]",
  "create_room_page": "//android.widget.TextView[contains(@text,'Create room')]",
  "create_find_room": "//android.widget.EditText[contains(@text,'Room name')]",
  "create_button": "//android.widget.TextView[contains(@resource-id,'com.google.android.apps.dynamite:id/create_space')]",
  "add_people_bots": "//android.widget.Button[contains(@text,'Add people & bots')]",
  "find_people_groups_bots": "//android.widget.EditText[contains(@text,'Find people, groups, and bots')]",
  "finish_button": "//android.widget.TextView[@content-desc ='Finish selecting members']",
  "click_dynamite_2": "//android.widget.TextView[contains(@text,'dynaandroauto2@dynamitegroup.net')]",
  "dynamite_account1": "dynaandroauto1@dynamitegroup.net",
  "dynamite_account2": "dynaandroauto2@dynamitegroup.net",
  "add_room1": "//android.widget.TextView[contains(@text,'qwerty')]",
  "dynamite": "//android.widget.TextView[contains(@text, 'Dynamite')]",
  "bot_1": "//android.widget.TextView[contains(@text, 'BirthdayBot')]",
  "leave_button": "//android.widget.TextView[contains(@text,'Leave')]",
  "dynamite_mail_2": "//android.widget.CheckedTextView[contains(@text,'dynaandroauto2@dynamitegroup.net')]",
  "dynamite_mail_1": "//android.widget.CheckedTextView[contains(@text,'dynaandroauto1@dynamitegroup.net')]",
  "leave_room": "//android.widget.Button[contains(@text,'LEAVE ROOM')]",
  "leave_room_block": "//android.widget.RelativeLayout[contains(@resource-id,'com.google.android.apps.dynamite:id/edit_space_leave_room')]",
  "leave_icon": "//android.widget.ImageButton[contains(@content-desc, 'Leave')]",
  "edit_button": "//android.widget.Button[contains(@text, 'EDIT')]",
  "mail": "//android.widget.TextView[contains(@text,'Recent')]/android.widget.LinearLayout[contains(@content-desc,'Last message')]",
  "copy_text": "//android.widget.TextView[contains(@text, 'Copy text')]",
  "add_reaction": "//android.widget.TextView[contains(@text, 'Add reaction')]",
  "edit_text": "//android.widget.TextView[contains(@text, 'Edit')]",
  "send_feedback": "//android.widget.TextView[contains(@text, 'Send feedback on this message')]",
  "reply_text1": "//android.widget.TextView[contains(@text, 'Not much, you?')]",
  "reply_text2": "//android.widget.TextView[contains(@text, 'Nothing')]",
  "reply_text3": "//android.widget.TextView[contains(@text, 'Just got home')]",
  "join_to_reply": "//android.widget.TextView[contains(@text, 'JOIN TO REPLY')]",
  "timestamp": "//android.widget.TextView[contains(@resource-id, 'com.google.android.apps.dynamite:id/time')]",
  "join_button": "//android.widget.Button[contains(@resource-id, 'com.google.android.apps.dynamite:id/preview_room_join_button')]",
  "message_count": "//android.widget.TextView[contains(@resource-id, 'com.google.android.apps.dynamite:id/number_of_messages')]",
  "dm_dyna": "//android.widget.TextView[contains(@text, 'dynaandro auto')]",
  "dm_dyna_1": "//android.widget.TextView[contains(@text, 'dynaandro, Sudheer')]",
  "click_dm_dyna": "//android.widget.LinearLayout[contains(@content-desc, 'dynaandro auto')]",
  "dm_details": "//android.widget.TextView[contains(@resource-id, 'com.google.android.apps.dynamite:id/title')]",
  "dm_header": "//android.widget.TextView[contains(@text, 'DM details')]",
  "star_option": "//android.widget.TextView[contains(@text, 'Star')]",
  "ustar_option": "//android.widget.TextView[contains(@text, 'Unstar')]",
  "user_profile": "//android.widget.ImageView[contains(@resource-id, 'com.google.android.apps.dynamite:id/cover_photo')]",
  "notification_switch": "//android.widget.Switch[contains(@resource-id, 'com.google.android.apps.dynamite:id/switch_button')]",
  "general_settings": "//android.widget.TextView[contains(@text, 'General settings will apply')]",
  "settings": "//android.widget.CheckedTextView[contains(@text, 'Settings')]",
  "mentions": "//android.widget.TextView[contains(@text, 'Only @mentions')]",
  "otr_toggle": "//android.widget.ImageButton[contains(@resource-id, 'com.google.android.apps.dynamite:id/otr_toggle_button')]",
  "member_1": "//android.widget.TextView[contains(@text, 'dynaandroauto1@dynamitegroup.net')]",
  "member_2": "//android.widget.TextView[contains(@text, 'dynaandroauto2@dynamitegroup.net')]",
  "member_3": "//android.widget.TextView[contains(@text, 'dynaandroauto3@dynamitegroup.net')]",
  "member_4": "//android.widget.TextView[contains(@text, 'dynamite-hyd')]",
  "hide_function": "//android.widget.TextView[contains(@text, 'Hide')]",
  "compose_message": "//android.widget.EditText[contains(@resource-id, 'com.google.android.apps.dynamite:id/compose_edit_text')]",
  "post_button": "//android.widget.ImageButton[contains(@resource-id, 'com.google.android.apps.dynamite:id/post_message_button')]",
  "unread_room_message": "//android.widget.TextView[contains(@text, 'Unread')]",
  "date_divider_room": "//android.widget.TextView[contains(@resource-id, 'com.google.android.apps.dynamite:id/date_divider')]",
  "dat26_room": "//android.widget.TextView[contains(@text, 'DAT26 Room')]",
  "dat27_room": "//android.widget.TextView[contains(@text, 'DAT27 Room')]",
  "dat41_room": "//android.widget.TextView[contains(@text, 'DAT41 Room')]",
  "dat44_room": "//android.widget.TextView[contains(@text, 'Dat44')]",
  "dat61_room": "//android.widget.TextView[contains(@text, 'Dat61')]",
  "dat38_room": "//android.widget.TextView[contains(@text, 'DAT38 Room')]",
  "dat39_room": "//android.widget.TextView[contains(@text, 'DAT39 Room')]",
  "dat40_room": "//android.widget.TextView[contains(@text, 'DAT40 Room')]",
  "dat42_room": "//android.widget.TextView[contains(@text, 'DAT42 Room')]",
  "dat43_room": "//android.widget.TextView[contains(@text, 'DAT43 Room')]",
  "dat45_room": "//android.widget.TextView[contains(@text, 'DAT45 Room')]",
  "dat20_room": "//android.widget.TextView[contains(@text, 'DAT20 Room')]",
  "dat46_room": "//android.widget.TextView[contains(@text, 'DAT46 Room')]",
  "dat47_room": "//android.widget.TextView[contains(@text, 'DAT47 Room')]",
  "dat48_room": "//android.widget.TextView[contains(@text, 'DAT48 Room')]",
  "dat50_room": "//android.widget.TextView[contains(@text, 'DAT50 Room')]",
  "dat51_room": "//android.widget.TextView[contains(@text, 'DAT51 Room')]",
  "dat52_room": "//android.widget.TextView[contains(@text, 'DAT52 Room')]",
  "dat53_room": "//android.widget.TextView[contains(@text, 'DAT53 Room')]",
  "dat54_room": "//android.widget.TextView[contains(@text, 'DAT54 Room')]",
  "dat55_room": "//android.widget.TextView[contains(@text, 'DAT55 Room')]",
  "dat56_room": "//android.widget.TextView[contains(@text, 'DAT56 Room')]",
  "dat57_room": "//android.widget.TextView[contains(@text, 'DAT57 Room')]",
  "dat58_room": "//android.widget.TextView[contains(@text, 'DAT58 Room')]",
  "dat59_room": "//android.widget.TextView[contains(@text, 'DAT59 Room')]",
  "dat60_room": "//android.widget.TextView[contains(@text, 'DAT60 Room')]",
  "dat62_room": "//android.widget.TextView[contains(@text, 'DAT62 Room')]",
  "dat65_room": "//android.widget.TextView[contains(@text, 'DAT65 Room')]",
  "dat66_room": "//android.widget.TextView[contains(@text, 'DAT66 Room')]",
  "dat67_room": "//android.widget.TextView[contains(@text, 'DAT67 Room')]",
  "dat68_room": "//android.widget.TextView[contains(@text, 'DAT68 Room')]",
  "dat69_room": "//android.widget.TextView[contains(@text, 'DAT69 Room')]",
  "dat72_room": "//android.widget.TextView[contains(@text, 'DAT72 Room')]",
  "dat77_room": "//android.widget.TextView[contains(@text, 'DAT77 Room')]",
  "dat79_room": "//android.widget.TextView[contains(@text, 'DAT79 Room')]",
  "dat80_room": "//android.widget.TextView[contains(@text, 'DAT80 Room')]",
  "dat81_room": "//android.widget.TextView[contains(@text, 'DAT81 Room')]",
  "dat88_room": "//android.widget.TextView[contains(@text, 'DAT88 Room')]",
  "dat91_room": "//android.widget.TextView[contains(@text, 'DAT91 Room')]",
  "dat92_room": "//android.widget.TextView[contains(@text, 'DAT92 Room')]",
  "dat93_room": "//android.widget.TextView[contains(@text, 'DAT93 Room')]",
  "dat94_room": "//android.widget.TextView[contains(@text, 'DAT94 Room')]",
  "dat95_room": "//android.widget.TextView[contains(@text, 'DAT95 Room')]",
  "dat106_room": "//android.widget.TextView[contains(@text, 'DAT106 Room')]",
  "dat107_room": "//android.widget.TextView[contains(@text, 'DAT107 Room')]",
  "dat110_room": "//android.widget.TextView[contains(@text, 'DAT110 Room')]",
  "dat125_room": "//android.widget.TextView[contains(@text, 'DAT125 Room')]",
  "dat126_room": "//android.widget.TextView[contains(@text, 'DAT126 Room')]",
  "dat127_room": "//android.widget.TextView[contains(@text, 'DAT127 Room')]",
  "dat143_room": "//android.widget.TextView[contains(@text, 'DAT143 Room')]",
  "dat144_room": "//android.widget.TextView[contains(@text, 'DAT144 Room')]",
  "dat54_room_edited": "//android.widget.TextView[contains(@text, 'DAT54 Room Edited')]",
  "dat64_room": "//android.widget.TextView[contains(@text, 'DAT64 Room')]",
  "dat78_room": "//android.widget.TextView[contains(@text, 'DAT78 Room')]",
  "dat105_room": "//android.widget.TextView[contains(@text, 'DAT105 Room')]",
  "dat155_room": "//android.widget.TextView[contains(@text, 'DAT155 Room')]",
  "dat165_room": "//android.widget.TextView[contains(@text, 'DAT165 Room')]",
  "dat170_room": "//android.widget.TextView[contains(@text, 'DAT170 Room')]",
  "dat172_room": "//android.widget.TextView[contains(@text, 'DAT172 Room')]",
  "dat178_room": "//android.widget.TextView[contains(@text, 'DAT178 Room')]",
  "dat179_room": "//android.widget.TextView[contains(@text, 'DAT179 Room')]",
  "dat180_room": "//android.widget.TextView[contains(@text, 'DAT180 Room')]",
  "dat187_room": "//android.widget.TextView[contains(@text, 'DAT187 Room')]",
  "unread_room2": "//android.widget.TextView[contains(@text, 'JoinFromRoom')]",
  "starred_room1": "//android.widget.TextView[contains(@text, 'staredRoom')]",
  "sender_summary": "//android.widget.TextView[contains(@resource-id, 'com.google.android.apps.dynamite:id/list_of_senders')]",
  "create_topic_button": "//android.widget.ImageButton[contains(@resource-id, 'com.google.android.apps.dynamite:id/create_topic_button')]",
  "reply_to_topic": "//android.widget.Button[contains(@resource-id, 'com.google.android.apps.dynamite:id/list_item_topic_reply')]",
  "edited_tag": "//android.widget.TextView[contains(@resource-id, 'com.google.android.apps.dynamite:id/edited_tag')]",
  "user_name": "//android.widget.TextView[contains(@resource-id, 'com.google.android.apps.dynamite:id/user_name')]",
  "hint_text": "//android.widget.EditText[contains(@resource-id, 'com.google.android.apps.dynamite:id/compose_edit_text')]",
  "select_image_button": "//android.widget.ImageButton[contains(@resource-id, 'com.google.android.apps.dynamite:id/pick_image_button')]",
  "capture_image_button": "//android.widget.ImageButton[contains(@resource-id, 'com.google.android.apps.dynamite:id/capture_image_button')]",
  "create_videocall_button": "//android.widget.ImageButton[contains(@resource-id, 'com.google.android.apps.dynamite:id/create_video_calls_button')]",
  "search_room": "//android.widget.TextView[contains(@resource-id, 'com.google.android.apps.dynamite:id/search')]",
  "separator_searchnav": "//android.view.View[contains(@resource-id, 'com.google.android.apps.dynamite:id/divider')]",
  "search_back": "//android.widget.ImageView[contains(@resource-id, 'com.google.android.apps.dynamite:id/up_indicator')]",
  "search_nav_room": "//android.widget.EditText[contains(@resource-id, 'com.google.android.apps.dynamite:id/search_term')]",
  "content_filter": "//android.widget.ImageView[contains(@resource-id, 'com.google.android.apps.dynamite:id/annotation')]",
  "me": "//android.widget.TextView[contains(@text, 'Me')]",
  "photos": "//android.widget.TextView[contains(@text, 'Photos')]",
  "videos": "//android.widget.TextView[contains(@text, 'Videos')]",
  "links": "//android.widget.TextView[contains(@text, 'Links')]",
  "docs": "//android.widget.TextView[contains(@text, 'Docs')]",
  "slides": "//android.widget.TextView[contains(@text, 'Slides')]",
  "sheets": "//android.widget.TextView[contains(@text, 'Sheets')]",
  "pdfs": "//android.widget.TextView[contains(@text, 'PDFs')]",
  "all_files": "//android.widget.TextView[contains(@text, 'All files')]",
  "edit_option": "//android.widget.TextView[contains(@text, 'Edit')]",
  "delete_option": "//android.widget.TextView[contains(@text, 'Delete')]",
  "room_count_3": "//android.widget.LinearLayout[@index= '1']",
  "upload_error": "//android.widget.LinearLayout[@index= '0']",
  "upload_cancel": "//android.widget.ImageView[contains(@resource-id, 'com.google.android.apps.dynamite:id/upload_chip_cancel_button')]",
  "delete_button": "//android.widget.Button[contains(@text, 'DELETE')]",
  "room_header": "//android.widget.TextView[contains(@resource-id, 'com.google.android.apps.dynamite:id/group_name')]",
  "invite_people": "//android.widget.TextView[contains(@resource-id, 'com.google.android.apps.dynamite:id/invite_people_text')]",
  "system_message": "//android.widget.TextView[contains(@resource-id, 'com.google.android.apps.dynamite:id/system_message')]",
  "dyna_andro_auto": "//android.widget.TextView[contains(@text, 'dyna-andro-automation')]",
  "done_member_select": "//android.widget.TextView[contains(@resource-id, 'com.google.android.apps.dynamite:id/done_members_select')]",
  "edit_room_name": "//android.widget.EditText[contains(@resource-id, 'com.google.android.apps.dynamite:id/edit_space_name')]",
  "space_view_room": "//android.widget.TextView[contains(@text, 'VerifySpaceView')]",
  "save_button": "//android.widget.TextView[contains(@resource-id, 'com.google.android.apps.dynamite:id/save')]",
  "dyna_room1": "//android.widget.TextView[contains(@text, 'Dynamite')]",
  "no_result_error": "//android.widget.TextView[contains(@resource-id, 'com.google.android.apps.dynamite:id/error_msg')]",
  "search_all_button": "//android.widget.Button[contains(@text, 'SEARCH ALL')]",
  "all_tab": "//android.widget.TextView[contains(@text, 'ALL')]",
  "nav_up_button": "//android.widget.ImageButton[contains(@content-desc, 'Navigate Up')]",
  "nav_up": "//android.widget.ImageView[contains(@content-desc, 'Navigate up')]",
  "user_1": "//android.support.v7.widget.RecyclerView[contains(@resource-id,'com.google.android.apps.dynamite:id/members_recycler_view')]/android.widget.LinearLayout[@index='0']",
  "user_2": "//android.support.v7.widget.RecyclerView[contains(@resource-id,'com.google.android.apps.dynamite:id/members_recycler_view')]/android.widget.LinearLayout[@index='1']",
  "notif_layout_new": "//android.widget.TextView[contains(@text, 'New conversations')]",
  "notif_tick_mark": "//android.widget.ImageView[contains(@resource-id, 'com.google.android.apps.dynamite:id/notification_setting_checkmark')]",
  "notif_layout_conv": "//android.widget.TextView[contains(@text, 'Conversations')]",
  "notif_layout_mention": "//android.widget.TextView[contains(@text, 'Only @mentions & direct messages')]",
  "notif_layout_off": "//android.widget.TextView[contains(@text, 'OFF')]",
  "add_people_room": "//android.widget.TextView[contains(@resource-id, 'com.google.android.apps.dynamite:id/edit_space_invite_people_text')]",
  "dyna_timestamp": "//android.support.v7.widget.RecyclerView[contains(@resource-id, 'com.google.android.apps.dynamite:id/spaces_recycler_view')]/android.widget.LinearLayout[@index='6']/android.widget.TextView[contains(@resource-id, 'com.google.android.apps.dynamite:id/timestamp')]",
  "reply_button": "//android.widget.TextView[contains(@text,'REPLY')]",
  "reply_text": "//android.widget.EditText[contains(@text,'Reply')]",
  "post_message": "//android.widget.ImageButton[contains(@content-desc,'Post message')]",
  "navigate_back": "//android.widget.ImageButton[contains(@content-desc,'Navigate Up')]",
  "navigate_back_img": "//android.widget.ImageView[contains(@content-desc,'Navigate Up')]",
  "navigation_menu": "//android.widget.ImageButton[contains(@content-desc,'Navigation menu')]",
  "nav_log_out": "//android.widget.CheckedTextView[contains(@text,'Sign out')]",
  "new_topic": "//android.widget.ImageButton[contains(@resource-id, 'com.google.android.apps.dynamite:id/create_topic_button')]",
  "new_topic_menu": "//android.widget.TextView[contains(@content-desc,'New topic')]",
  "set_message": "//android.widget.EditText[contains(@text,'Message')]",
  "set_message_41": "//android.widget.EditText[contains(@text,'Message DAT41 Room')]",
  "search_button": "//android.widget.TextView[contains(@content-desc,'Search')]",
  "join_leave_room1": "//android.widget.TextView[contains(@text,'JoinLeaveRoom')]",
  "plus_button": "//android.widget.ImageButton[contains(@content-desc,'Join')]",
  "you_joined": "//android.widget.TextView[contains(@content-desc,'You joined')]",
  "right_button": "//android.widget.ImageButton[contains(@content-desc,'Leave')]",
  "you_left": "//android.widget.TextView[contains(@content-desc,'You left')]",
  "dyandro_grpname": "//android.widget.TextView[contains(@text,'dynaandro, Sudheer')]",
  "new_conversation": "//android.widget.TextView[contains(@text,'New thread')]",
  "num_of_membrs": "//android.widget.TextView[contains(@resource-id,'com.google.android.apps.dynamite:id/subtitle')]",
  "get_message": "//android.widget.TextView[contains(@text, 'Reply text1')]",
  "get_message2": "//android.widget.TextView[contains(@text, 'Reply text2')]",
  "youtube_menu": "//android.widget.ImageView[contains(@content-desc,'Menu')]",
  "youtube_share": "//android.widget.TextView[contains(@text,'Share')]",
  "chat_app": "//android.widget.TextView[contains(@text,'Chat')]",
  "sharing_room": "//android.widget.TextView[contains(@text,'SharingRoom')]",
  "youtube_all_app_share": "//android.widget.TextView[contains(@text,'Share')]",
  "youtube_home": "//android.widget.ImageView[contains(@content-desc,'YouTube')]",
  "rooms_invited_to": "//android.widget.TextView[contains(@text,'Rooms you')]",
  "dat17_room": "//android.widget.TextView[contains(@text, 'DAT17 Room')]",
  "dat21_room": "//android.widget.TextView[contains(@text, 'DAT21 Room')]",
  "dat22_room": "//android.widget.TextView[contains(@text, 'DAT22 Room')]",
  "dat23_room": "//android.widget.TextView[contains(@text, 'DAT23 Room')]",
  "dat24_room": "//android.widget.TextView[contains(@text, 'DAT24 Room')]",
  "dat25_room": "//android.widget.TextView[contains(@text, 'DAT25 Room')]",
  "dm_person": "//android.widget.TextView[contains(@text, 'dynaandro auto3')]",
  "history_on": "//android.widget.TextView[contains(@text, 'HISTORY ON')]",
  "history_on_button": "//android.widget.TextView[contains(@text, 'History on')]",
  "history_on_message": "android.widget.EditText[contains(@text, 'Message dynaandro auto1')]",
  "history_off": "//android.widget.TextView[contains(@text, 'HISTORY OFF')]",
  "history_off_button": "//android.widget.TextView[contains(@text, 'History off')]",
  "following": "//android.widget.Button[contains(@resource-id, 'com.google.android.apps.dynamite:id/mute_topic_button')]",
  "follow": "//android.widget.Button[contains(@resource-id, 'com.google.android.apps.dynamite:id/mute_topic_button')]",
  "dm_now": "//android.widget.TextView[contains(@text, 'Now')]",
  "verify_gmail": "//android.widget.CheckedTextView[contains(@text,'dynamiteautomation2@gmail.com')]",
  "Search_people": "//android.widget.EditText[contains(@text, 'Find people, groups, and bots')]",
  "add_dynaandro3": "//android.widget.LinearLayout[@index='1']",
  "gmail_overflowmenu": "//android.widget.ImageButton[contains(@content-desc, 'Open navigation drawer')]",
  "gmail_mail": "//android.view.View[@index='0']",
  "invitaion_mail": "//android.widget.TextView[contains(@text, '\"DAT143 Room\" room - You’ve been added Inbox ')]",
  "invitaion_mail2":  "//android.widget.TextView[contains(@text, '\"DAT144 Room\" room - You’ve been added Inbox ')]",
  "switch_account": "//android.widget.TextView[contains(@text,'dynaandroauto1@dynamitegroup.net')]",
  "switch_account2": "//android.widget.TextView[contains(@text,'dynaandroauto3@dynamitegroup.net')]",
  "dnd_status": "//android.widget.TextView[contains(@text, 'Notifications snoozed until')]",
  "show_accounts": "//android.widget.ImageButton[contains(@content-desc, 'Show accounts')]",
  "group_creation_info": "//android.widget.TextView[contains(@resource-id, 'com.google.android.apps.dynamite:id/group_creation_info')]",
  "join_link": "//android.widget.LinearLayout[contains(@resource-id, 'com.google.android.apps.dynamite:id/edit_space_join')]",
  "avatar_icon": "//android.widget.ImageView[@resource-id ='com.google.android.apps.dynamite:id/creator_avatar']",
  "invite_button": "//android.widget.LinearLayout[contains(@resource-id, 'com.google.android.apps.dynamite:id/invite_people_button')]",
  "collapsed_badge": "//android.widget.TextView[contains(@resource-id, 'com.google.android.apps.dynamite:id/number_of_messages')]",
  "preview_room_name": "//android.widget.TextView[contains(@resource-id,'com.google.android.apps.dynamite:id/preview_room_name')]",
  "preview_icon": "//android.widget.ImageButton[contains(@resource-id, 'com.google.android.apps.dynamite:id/preview_icon')]",
  "message_feedback": "//android.widget.TextView[contains(@text,'Send feedback on this message')]",
  "drive_object": "//android.widget.ImageView[contains(@resource-id, 'com.google.android.apps.dynamite:id/website_object_image')]",
  "hangouts_dynaandro": "//android.widget.LinearLayout[contains(@resource-id, 'com.google.android.talk:id/conversationContent')]",
  "mute_icon": "//android.widget.ImageView[contains(@resource-id, 'com.google.android.apps.dynamite:id/muted')]",
  "overflow": "//android.widget.ImageView[contains(@resource-id, 'com.google.android.apps.dynamite:id/overflow_menu')]",
  "remove_from_room": "//android.widget.TextView[contains(@text,'Remove from room')]",
  "remove_button": "//android.widget.Button[contains(@text,'REMOVE')]",
  "user_email": "//android.widget.TextView[contains(@resource-id, 'com.google.android.apps.dynamite:id/subtext')]",
  "add_1": "//android.widget.TextView[contains(@text, 'Add 1')]",
  "add_2": "//android.widget.TextView[contains(@text, 'Add 2')]",
  "add_8": "//android.widget.TextView[contains(@text, 'Add 8')]",
  "edit_user_chip": "//android.widget.EditText[contains(@resource-id, 'com.google.android.apps.dynamite:id/user_chip_edit_text')]",
  "add_people_bots": "//android.widget.Button[contains(@text,'Add people & bots')]",
  "offline_share_room": "//android.widget.LinearLayout[@index= '0']",
  "add_people": "//android.widget.TextView[contains(@text,'Add people & bots')]",
  "message_dat62": "//android.widget.EditText[contains(@text, 'Message DAT62 Room')]",
  "albums": "//android.widget.TextView[contains(@text, 'ALBUMS')]",
  "screenshots": "//com.sec.samsung.gallery.glview.composeView.ThumbObject[@index = '1']",
  "photo_1": "//com.sec.samsung.gallery.glview.composeView.ThumbObject[@index = '0']",
  "photo_2": "//android.view.ViewGroup[@index='0']",
  "share_photo": "//android.widget.TextView[contains(@resource-id, 'com.google.android.apps.photos:id/share_button')]",
  "cancel_chip": "//android.widget.ImageView[contains(@resource-id, 'com.google.android.apps.dynamite:id/cancel_button')]",
  "attachment_message": "//android.widget.ImageView[contains(@resource-id, 'com.google.android.apps.dynamite:id/message_object_image')]",
  "replace_button": "//android.widget.Button[contains(@text,'REPLACE')]",
  "shutter_button": "//GLButton[contains(@text, 'Shutter')]",
  "video_call_chip": "//android.widget.FrameLayout[contains(@resource-id, 'com.google.android.apps.dynamite:id/chip_container')]",
  "failed": "//android.widget.TextView[contains(@text, 'Failed to send')]",
  "no_connection": "//android.widget.LinearLayout[contains(@resource-id, 'com.google.android.apps.dynamite:id/offline_indicator')]",
  "failure_icon": "//android.widget.ImageView[contains(@resource-id, 'com.google.android.apps.dynamite:id/failure_icon')]",
  "test_message": "//android.widget.TextView[contains(@text, 'Hey')]",
  "bot_add": "//android.widget.LinearLayout[@index='0']",
  "bot_add1": "//android.widget.LinearLayout[@index='1']",
  "bot_2": "//android.widget.TextView[contains(@text, 'Sudheer G')]",
  "no_result": "//android.widget.TextView[contains(@text, 'No results')]",
  "system_settings": "//android.widget.TextView[contains(@resource-id,'com.google.android.apps.dynamite:id/enable_notifications')]",
  "settings_menu": "//android.widget.CheckedTextView[contains(@text, 'Settings')]",
  "mobile_notifications": "//android.widget.RelativeLayout[@index='0']",
  "all_messages": "//android.widget.RadioButton[contains(@resource-id, 'com.google.android.apps.dynamite:id/option_all_messages')]",
  "new_threads": "//android.widget.RadioButton[contains(@resource-id, 'com.google.android.apps.dynamite:id/option_new_topic')]",
  "threads_following": "//android.widget.RadioButton[contains(@resource-id, 'com.google.android.apps.dynamite:id/option_following_topics')]",
  "only_mentions": "//android.widget.RadioButton[contains(@resource-id, 'com.google.android.apps.dynamite:id/option_only_mentions_and_direct_messages')]",
  "off": "//android.widget.RadioButton[contains(@resource-id, 'com.google.android.apps.dynamite:id/option_notification_off')]",
  "all_text": "//android.widget.TextView[contains(@text, 'Notify everyone')]",
  "add_to_room": "//android.widget.TextView[contains(@text,'ADD TO ROOM')]",
  "cancel": "//android.widget.TextView[contains(@text,'CANCEL')]",
  "remove_bot": "//android.widget.RelativeLayout[contains(@resource-id, 'com.google.android.apps.dynamite:id/edit_space_remove_bot_dm')]",
  "members_dm": "//android.widget.TextView[contains(@resource-id, 'com.google.android.apps.dynamite:id/edit_space_member_title')]",
  "mendel_bar": "//android.view.ViewGroup[contains(@resource-id, 'com.google.android.apps.dynamite:id/actionbar')]",
  "mendel_username": "//android.widget.TextView[contains(@resource-id, 'com.google.android.apps.dynamite:id/name')]",
  "presence_information": "//android.widget.LinearLayout[contains(@resource-id, 'com.google.android.apps.dynamite:id/presence_information')]",
  "add_bot_screen": "//android.widget.TextView[contains(@text,'Add bot')]",
  "today_header": "//android.widget.TextView[contains(@text,'Today')]",
  "website_chip": "//android.widget.ImageView[contains(@resource-id, 'com.google.android.apps.dynamite:id/website_object_image')]",
  "resend_option": "//android.widget.TextView[contains(@text, 'Resend')]",
  "onboard_header": "//android.widget.TextView[contains(@text, 'Welcome to the new Hangouts Chat')]",
  "onboard_message": "//android.widget.TextView[contains(@text, 'An intelligent communication app, built for teams')]",
  "error_message": "//android.widget.TextView[contains(@text, 'You don')]",
  "add_account_textbox": "//android.widget.EditText[contains(@resource-id, 'identifierId')]",
  "next_button": "//android.widget.Button[contains(@text, 'Next')]",
  "password_textbox": "//android.widget.EditText[@index= '0']",
  "agree_button": "//android.widget.Button[contains(@text, 'I agree')]",
  "quick_reactions": "//android.widget.TextView[contains(@resource-id, 'com.google.android.apps.dynamite:id/quick_pick_label')]",
  "smileys_people": "//android.widget.TextView[contains(@text, 'Smileys and people')]",
  "emoji_1": "//android.support.text.emoji.widget.EmojiTextView[contains(@resource-id, 'com.google.android.apps.dynamite:id/emoji')]",
  "snooze_notifications": "//android.widget.CheckedTextView[contains(@text, 'Snooze Notifications')]",
  "invited_group_name": "//android.widget.TextView[contains(@resource-id, 'com.google.android.apps.dynamite:id/invited_group_name')]",
  "toast_message": "//android.widget.TextView[contains(@resource-id, 'com.google.android.apps.dynamite:id/snackbar_text')]",
  "retake_button": "//android.widget.TextView[contains(@resource-id, 'com.sec.android.app.camera:id/retry')]",
  "ok_button": "//android.widget.TextView[contains(@resource-id, 'com.sec.android.app.camera:id/okay')]",
  "reply_second_last": "android.widget.Button[@index= '5']",
  "adb_language_en_xa": "adb shell am start -n net.sanapeli.adbchangelanguage/.AdbChangeLanguage -e language en_XA",
  "adb_language_en": "adb shell am start -n net.sanapeli.adbchangelanguage/.AdbChangeLanguage -e language en",
  "search_settings": "//android.view.ViewGroup[contains(@resource-id, 'com.android.settings:id/search_action_bar')]",
  "display_block": "//android.widget.LinearLayout[@index= '6']",
  "advanced_options": "//android.widget.TextView[contains(@text, 'Font and screen zoom')]",
  "notifications_block": "//android.widget.TextView[contains(@text, 'Notifications')]",
  "font_size": "//android.widget.SeekBar[contains(@resource-id, 'com.android.settings:id/seekBarForScreenSize')]",
  "apply_font": "//android.widget.Button[contains(@text, 'APPLY')]",
  "default_font": "//android.widget.RadioButton[@index= '1']",
  "mobile_notifications_header": "//android.widget.TextView[contains(@text,'Mobile notifications')]",
  "jump_to_bottom": "//android.widget.ImageButton[contains(@resource-id, 'com.google.android.apps.dynamite:id/jump_to_bottom_button')]",
  "help_feedback": "//android.widget.CheckedTextView[contains(@text, 'Help & feedback')]",
  "send_feedback": "//android.widget.TextView[contains(@resource-id, 'com.google.android.gms:id/gh_contact_option_title')]",
  "write_feedback": "//android.widget.EditText[contains(@resource-id, 'com.google.android.gms:id/gf_issue_description')]",
  "post_feedback": "//android.widget.TextView[contains(@resource-id, 'com.google.android.gms:id/common_send')]",
  "can_join": "//android.widget.TextView[contains(@text, 'Can join')]",
  "can_join_text": "//android.widget.TextView[contains(@text, 'These people')]",
  "send_feedback_setting": "//android.widget.TextView[contains(@resource-id, 'com.google.android.gms:id/gh_contact_option_title')]",
  "account_to_run": "//android.widget.CheckedTextView(contains(@text, 'dynaandroauto2@dynamitegroup.net')]"
}